-------------------------------------------------------------------------------
Test set: com.dam1.usafiguras.AppTest
-------------------------------------------------------------------------------
Tests run: 1, Failures: 0, Errors: 0, Skipped: 0, Time elapsed: 0.459 s - in com.dam1.usafiguras.AppTest
